{
  "EDITOR_STATE": {
    "allProjectFiles": {
      "bbd4bfcf-3183-4637-a7e4-df3265a5dfd2": {
        "id": "bbd4bfcf-3183-4637-a7e4-df3265a5dfd2",
        "parent": null,
        "name": "indunnpythonAUG4.py",
        "type": "PYTHON_LAMBDA",
        "isDirectory": false,
        "children": [],
        "isRemovable": true,
        "filePath": "indunnpythonAUG4.py",
        "cursor": {
          "lineNumber": 1,
          "column": 1
        },
        "config": {
          "runtime": "python3.8",
          "handler": "handler",
          "timeout": 60,
          "memory": 128,
          "layers": [],
          "name": "indunnpythonAUG4"
        },
        "triggers": [
          {
            "resourceName": "apigusEast1induAug4apiqainduany",
            "config": {}
          }
        ]
      }
    },
    "openFiles": [
      "bbd4bfcf-3183-4637-a7e4-df3265a5dfd2"
    ],
    "currentFileId": "bbd4bfcf-3183-4637-a7e4-df3265a5dfd2",
    "resources": {
      "apigusEast1induAug4apiqainduany": {
        "name": "apigusEast1induAug4apiqainduany",
        "type": "API_GATEWAY",
        "config": {
          "selectedRegion": "us-east-1",
          "apiType": 1,
          "apiMode": 0,
          "apiName": "induAug4api",
          "endpointType": "EDGE",
          "resourceMode": 0,
          "resourceName": "qa/indu",
          "resourcePath": "/qa/indu",
          "restMethod": "ANY",
          "proxyIntegration": false,
          "enableCORS": false,
          "stageMode": 0,
          "stageName": "test1",
          "mode": 0
        }
      },
      "s3induAug4s3pythn": {
        "name": "s3induAug4s3pythn",
        "type": "S3",
        "config": {
          "mode": 0,
          "bucket": {
            "region": "us-east-1",
            "name": "indu-aug4.s3pythn"
          }
        }
      }
    },
    "customTemplate": {
      "syntax": "JSON",
      "overrideDefault": false,
      "dialect": "CloudFormation",
      "definitions": null
    },
    "envVariables": [
      {
        "lambdaId": "all",
        "varKey": "SIGMA_AWS_ACC_ID",
        "varValue": null,
        "shouldPersist": false,
        "displayOnly": false,
        "editable": false
      }
    ],
    "packageJSON": {
      "dependencies": {
        "boto3": {
          "name": "boto3",
          "language": "python",
          "version": "1.12.27",
          "dev": true,
          "notRemovable": false
        }
      }
    }
  },
  "PROJECT_META": {
    "sigmaVersion": "1.4.1.4",
    "projectName": "indunnpythonAUG4",
    "projectDescription": "",
    "projectVersion": "1.0.0",
    "projectRegion": "us-east-1",
    "platform": "AWS",
    "language": "python",
    "platformRegions": {},
    "lastSave": 1596514015255
  },
  "VCS_STATE": {
    "provider": "BitBucket",
    "repo": {
      "name": "indunnpythonaug4",
      "url": "https://bitbucket.org/Indunil1992/indunnpythonaug4"
    }
  }
}